{
	"info": {
		"_postman_id": "540c25ab-e060-462c-a6ef-47407f346e88",
		"name": "Express Activity",
		"schema": "https://schema.getpostman.com/json/collection/v2.1.0/collection.json",
		"_exporter_id": "20335646"
	},
	"item": [
		{
			"name": "New Request",
			"request": {
				"method": "POST",
				"header": [],
				"body": {
					"mode": "raw",
					"raw": "{\r\n    \"firstname\": \"ryan\",\r\n    \"lastname\" :\"manzano\",\r\n    \"username\": \"ryanmanzano\",\r\n    \"password\":\"123\"\r\n\r\n}",
					"options": {
						"raw": {
							"language": "json"
						}
					}
				},
				"url": {
					"raw": "http://localhost:4001/register",
					"protocol": "http",
					"host": [
						"localhost"
					],
					"port": "4001",
					"path": [
						"register"
					]
				}
			},
			"response": []
		},
		{
			"name": "New Request",
			"request": {
				"method": "POST",
				"header": [],
				"body": {
					"mode": "raw",
					"raw": "{\r\n    \"username\": \"ryanmanzano\",\r\n    \"password\":\"123\"\r\n}",
					"options": {
						"raw": {
							"language": "json"
						}
					}
				},
				"url": {
					"raw": "http://localhost:4001/login",
					"protocol": "http",
					"host": [
						"localhost"
					],
					"port": "4001",
					"path": [
						"login"
					]
				}
			},
			"response": []
		}
	]
}